[
  {
    "url": "http://scribd.com",
    "logo_url": "http://s3.amazonaws.com/crunchbase_prod_assets/assets/images/resized/0000/3184/3184v25-max-250x250.png",
    "id": 15,
    "short_description": "Scribd is a digital library, featuring e-book subscription services on iPhone, iPad, Kindle Fire and Nook Tablet.",
    "city": "San Francisco",
    "funding_rounds": 5,
    "founded_at": "2007-01-01",
    "name": "Scribd",
    "funding_total_usd": "25762000",
    "overview": "Scribd is the world?s biggest digital library, featuring a subscription service with premier ebooks including New York Times bestsellers and literary classics. A pioneer of the all-you-can-read model, Scribd's subscriptions service allows readers to have unlimited access to more than 100,000 books from over 900 publishers, including Harper Collins, Rosetta, and Workman.\r\n\r\nLaunched in 2007 by Trip Adler and Jared Friedman in San Francisco, CA, Scribd is backed by Y Combinator, Charles River Ventures, and Redpoint Ventures. Scribd' has more than 80 million active readers visiting the site each month, and its document reader has been embedded more than 10 million times across the web on sites like The New York Times, USA Today, Guardian, and TechCrunch. \r\n",
    "description": "Read Unlimited Books"
  },
  {
    "url": "http://www.addthis.com",
    "logo_url": "http://s3.amazonaws.com/crunchbase_prod_assets/assets/images/resized/0000/4135/4135v5-max-250x250.jpg",
    "id": 34,
    "short_description": "AddThis provides social engagement tools, APIs and services personalizing websites for engagement, monetization and traffic boosting.",
    "city": "Vienna",
    "funding_rounds": 6,
    "founded_at": "2004-01-01",
    "name": "AddThis",
    "funding_total_usd": "73000000",
    "overview": "AddThis personalizes the web with powerful, easy-to-use social engagement tools, APIs and services. Reaching 1.5 billion unique users monthly, AddThis? data-driven solutions boost traffic, engagement, intelligence and monetization for publishers and advertisers. With a massive web-wide footprint of more than 14 million domains, AddThis processes more than 300 terabytes of data daily allowing AddThis to provide brands with sophisticated audience models, data-driven engagement tools and web-wide audience insights that enhance paid, earned and owned media strategies.",
    "description": "Content Engagement"
  }
]